Survey package: Two stage cluster sampling
…
```r
> summary(clutch_summary$mi)
   Min. 1st Qu.  Median    Mean 3rd Qu.    Max. 
      2       2       2       2       2       2 
```

Add `\(m_i\)` to the original data set with `mutate`:

```r
> coots <- coots %>% 
+   group_by(clutch) %>% 
+   mutate(mi = n()) 
> coots
# A tibble: 368 x 8
# Groups:   clutch [184]
   clutch csize length breadth volume   tmt elem.id    mi
    <int> <int>  <dbl>   <dbl>  <dbl> <int>   <int> <int>
 1      1    13   44.3    31.1  3.80      1       1     2
 2      1    13   45.9    32.7  3.93      1       2     2
 3      2    13   49.2    34.4  4.22      1       3     2
 4      2    13   48.7    32.7  4.17      1       4     2
 5      3     6   51.0    34.2  0.932     0       5     2
 6      3     6   49.4    34.4  0.901     0       6     2
 7      4    11   49.2    31.6  3.02      1       7     2
 8      4    11   48.6    33.1  2.98      1       8     2
 9      5    10   49.4    34.6  2.50      1       9     2
10      5    10   49.0    35.0  2.49      1      10     2
# ... with 358 more rows
```
…
